<?xml version="1.0" encoding="UTF-8"?>
<svg width="24px" height="24px" viewBox="0 0 24 24" version="1.1" xmlns="http://www.w3.org/2000/svg" xmlns:xlink="http://www.w3.org/1999/xlink">
    <title>ic_上传</title>
    <g id="ic_上传" stroke="none" stroke-width="1" fill="none" fill-rule="evenodd">
        <g id="矩形" fill="#FFFFFF" stroke="#EBEBEB">
            <rect x="0.5" y="0.5" width="23" height="23" rx="3"></rect>
        </g>
        <g id="上传-(1)" transform="translate(5.000000, 5.000000)" fill="#666E8E" fill-rule="nonzero">
            <path d="M13.3777649,8.98660134 L13.3777649,13.2222222 C13.3777649,13.6517446 13.0297181,14 12.6001956,14 L0.777986239,14 C0.348463815,14 0,13.6517446 0,13.2222222 L0,8.98660134 C0,8.55707891 0.348255355,8.20882356 0.77777778,8.20882356 C1.2073002,8.20882356 1.55555556,8.55707891 1.55555556,8.98660134 L1.55555556,12.4444444 L11.8222094,12.4444444 L11.8222094,8.98660134 C11.8222094,8.55707891 12.1704647,8.20882356 12.5999872,8.20882356 C13.0295096,8.20882356 13.3777649,8.55707891 13.3777649,8.98660134 Z M4.14163781,4.48992524 L5.91108866,2.68333655 L5.91108866,9.41801593 C5.91108866,9.84755438 6.25934402,10.1957937 6.68886644,10.1957937 C7.11838887,10.1957937 7.46664422,9.84755438 7.46664422,9.41801593 L7.46664422,2.68341672 L9.23601489,4.48984505 C9.38836659,4.64540381 9.59002693,4.72339968 9.79184763,4.72339968 C9.98810408,4.72339968 10.1847133,4.64949283 10.3360067,4.50131032 C10.6428748,4.2006799 10.6480542,3.70826691 10.347504,3.40141477 L7.24482746,0.233570655 C7.09853713,0.0841534271 6.89825581,0 6.68915507,0 C6.48013451,0 6.27983717,0.0841534271 6.13354684,0.233490486 L3.03058167,3.40133461 C2.72995125,3.70828294 2.73497031,4.20067991 3.04190262,4.50123015 C3.34875474,4.80186056 3.84116774,4.79669717 4.14163781,4.48992524 Z" id="形状"></path>
        </g>
    </g>
</svg>