<?xml version="1.0" encoding="UTF-8"?>
<svg width="24px" height="24px" viewBox="0 0 24 24" version="1.1" xmlns="http://www.w3.org/2000/svg" xmlns:xlink="http://www.w3.org/1999/xlink">
    <title>ic_下载</title>
    <g id="ic_下载" stroke="none" stroke-width="1" fill="none" fill-rule="evenodd">
        <g id="矩形" fill="#FFFFFF" stroke="#EBEBEB">
            <rect x="0.5" y="0.5" width="23" height="23" rx="3"></rect>
        </g>
        <g id="下载" transform="translate(5.919612, 5.681929)" stroke="#666E8E" stroke-linecap="round" stroke-width="1.5">
            <polyline id="路径-2" stroke-linejoin="round" points="0.508051128 3.76282494 6.06877603 9.20126608 11.6295009 3.76282494"></polyline>
            <line x1="6.13500408" y1="0" x2="6.06877603" y2="8.60426911" id="路径-3"></line>
            <line x1="0" y1="12.0089886" x2="12.0008465" y2="12.0089886" id="路径-4" stroke-linejoin="round"></line>
        </g>
    </g>
</svg>