<?xml version="1.0" encoding="UTF-8"?>
<svg width="24px" height="24px" viewBox="0 0 24 24" version="1.1" xmlns="http://www.w3.org/2000/svg" xmlns:xlink="http://www.w3.org/1999/xlink">
    <title>ic_方案_pr</title>
    <g id="控件" stroke="none" stroke-width="1" fill="none" fill-rule="evenodd">
        <g id="ic_方案_pr" fill="#388EFF" fill-rule="nonzero">
            <g id="ic_方案">
                <path d="M14.3307292,20.1666667 L7.9640625,20.1666667 C7.4640625,20.1666667 7.0640625,20.5666667 7.0640625,21.0666667 C7.0640625,21.5666667 7.4640625,21.9666667 7.9640625,21.9666667 L14.3307292,21.9666667 C14.8307292,21.9666667 15.2307292,21.5666667 15.2307292,21.0666667 C15.2307292,20.5666667 14.8307292,20.1666667 14.3307292,20.1666667 Z M11.1640625,2 C10.8307292,2 10.5307292,2 10.2640625,2.03333334 C6.39739584,2.46666666 3.3640625,5.63333334 3.03072916,9.5 C2.7640625,12.6 4.2640625,15.4 6.63072916,17 L6.63072916,18.3666667 C6.63072916,18.8666667 7.03072916,19.2666667 7.53072916,19.2666667 L14.7973958,19.2666667 C15.2973958,19.2666667 15.6973958,18.8666667 15.6973958,18.3666667 L15.6973958,17 C17.8640625,15.5333333 19.3307292,13.0666667 19.3307292,10.2 C19.3307292,5.7 15.6640625,2 11.1640625,2 Z M15.0307292,10.8666667 C14.5307292,10.8666667 14.1307292,10.4666667 14.1307292,9.96666666 C14.1307292,8.46666666 12.8973958,7.23333332 11.3973958,7.23333334 C10.8973958,7.23333334 10.4973958,6.83333334 10.4973958,6.33333334 C10.4973958,5.83333334 10.8973958,5.43333334 11.3973958,5.43333334 C13.8973958,5.43333334 15.9307292,7.46666668 15.9307292,9.96666666 C15.9307292,10.4666667 15.5307292,10.8666667 15.0307292,10.8666667 L15.0307292,10.8666667 Z" id="形状"></path>
            </g>
        </g>
    </g>
</svg>