<?xml version="1.0" encoding="UTF-8"?>
<svg width="24px" height="24px" viewBox="0 0 24 24" version="1.1" xmlns="http://www.w3.org/2000/svg" xmlns:xlink="http://www.w3.org/1999/xlink">
    <title>ic_模板</title>
    <g id="控件" stroke="none" stroke-width="1" fill="none" fill-rule="evenodd">
        <g id="ic_模板" fill="#C6DFFF" fill-rule="nonzero">
            <g id="形状">
                <path d="M12.8547561,21.0613593 C12.2605154,21.0613593 11.7770939,20.5779597 11.7770939,19.9837848 L11.7770939,12.1014359 C11.7770939,11.5071513 12.2604934,11.0238615 12.8547561,11.0238615 L19.8613275,11.0238615 C20.4554366,11.0238615 20.9387922,11.5071513 20.9387922,12.1014359 L20.9387922,19.9837848 C20.9387922,20.5779378 20.4554585,21.0613593 19.8613275,21.0613593 L12.8547561,21.0613593 Z M4.09654194,21.0613593 C3.50230118,21.0613593 3.01903336,20.5779597 3.01903336,19.9837848 L3.01903336,16.4805869 C3.01903336,15.886412 3.50232313,15.4028369 4.09654194,15.4028369 L9.35138266,15.4028369 C9.94575512,15.4028369 10.4290668,15.8863901 10.4290668,16.4805869 L10.4290668,19.9837848 C10.4290668,20.5779378 9.94575512,21.0613593 9.35138266,21.0613593 L4.09654194,21.0613593 Z M4.09654194,14.054722 C3.50230118,14.054722 3.01903336,13.5714323 3.01903336,12.9770818 L3.01903336,5.09482067 C3.01903336,4.50055797 3.50232313,4.01722429 4.09654194,4.01722429 L9.35138266,4.01722429 C9.94575512,4.01722429 10.4290668,4.50055797 10.4290668,5.09482067 L10.4290668,12.9770818 C10.4290668,13.5714323 9.94575512,14.054722 9.35138266,14.054722 L4.09654194,14.054722 L4.09654194,14.054722 Z M12.8547561,9.67568078 C12.2605154,9.67568078 11.7770939,9.19221544 11.7770939,8.59790881 L11.7770939,5.09482067 C11.7770939,4.50055797 12.2604934,4.01722429 12.8547561,4.01722429 L19.8613275,4.01722429 C20.4554366,4.01722429 20.9387922,4.50055797 20.9387922,5.09482067 L20.9387922,8.59793076 C20.9387922,9.19221542 20.4554585,9.67568078 19.8613275,9.67568078 L12.8547561,9.67568078 L12.8547561,9.67568078 Z"></path>
            </g>
        </g>
    </g>
</svg>