<?xml version="1.0" encoding="UTF-8"?>
<svg width="24px" height="24px" viewBox="0 0 24 24" version="1.1" xmlns="http://www.w3.org/2000/svg" xmlns:xlink="http://www.w3.org/1999/xlink">
    <title>ic_编辑头像</title>
    <g id="页面-1" stroke="none" stroke-width="1" fill="none" fill-rule="evenodd">
        <g id="1_2_2账号信息_编辑" transform="translate(-440.000000, -347.000000)" fill="#FFFFFF" fill-rule="nonzero">
            <g id="位图" transform="translate(392.000000, 299.000000)">
                <g id="ic_编辑头像" transform="translate(48.000000, 48.000000)">
                    <path d="M22,7.87400178 L10.2342502,19.6397516 L4.36024844,13.7657498 L16.1259982,2 L22,7.87400178 Z M2,16.1259982 L7.87400178,22 L2,22 L2,16.1259982 Z" id="形状"></path>
                </g>
            </g>
        </g>
    </g>
</svg>