<?xml version="1.0" encoding="UTF-8"?>
<svg width="24px" height="24px" viewBox="0 0 24 24" version="1.1" xmlns="http://www.w3.org/2000/svg" xmlns:xlink="http://www.w3.org/1999/xlink">
    <title>ic_直播</title>
    <g id="控件" stroke="none" stroke-width="1" fill="none" fill-rule="evenodd">
        <g id="ic_直播" fill="#C6DFFF" fill-rule="nonzero">
            <g>
                <path d="M18.9590625,5.18718153 C19.7577431,5.18807883 20.523411,5.50608004 21.0876276,6.07136834 C21.6518443,6.63665665 21.968392,7.40292652 21.9677312,8.20160714 L21.9677312,8.20160714 L21.9677312,18.4101786 C21.9677312,19.2188345 21.5889584,19.9289719 20.8314129,20.5405909 C20.0739321,21.1522099 19.2145773,21.445882 18.2533482,21.4216071 L18.2533482,21.4216071 L5.02191964,21.4216071 C4.22274421,21.4223654 3.45604136,21.1054255 2.89067085,20.5405909 C2.32530034,19.9757563 2.0075879,19.2093544 2.0075879,18.4101786 L2.0075879,18.4101786 L2.0075879,8.20160714 C2.00687487,7.40193641 2.32420673,6.63479993 2.88965958,6.06934708 C3.45511243,5.50389423 4.22224891,5.18656237 5.02191964,5.18718153 L5.02191964,5.18718153 Z M10.1762054,10.0073214 C10.0235485,9.91850258 9.83510044,9.91788476 9.68186449,10.0057007 C9.52862855,10.0935167 9.43389146,10.2564214 9.43334821,10.4330357 L9.43334821,10.4330357 L9.43334821,17.0244643 C9.43389146,17.2010786 9.52862855,17.3639833 9.68186449,17.4517993 C9.83510044,17.5396152 10.0235485,17.5389974 10.1762054,17.4501786 L10.1762054,17.4501786 L15.8219196,14.15875 C15.9753485,14.0705881 16.0699435,13.9071331 16.0699435,13.7301786 C16.0699435,13.553224 15.9753485,13.389769 15.8219196,13.3016071 L15.8219196,13.3016071 Z" id="形状结合"></path>
                <path d="M15.4390625,5.18732143 L16.6019196,3.18732143 C16.8027982,2.81668112 16.6933506,2.35429576 16.3476339,2.11303571 C16.1651431,2.01388108 15.9506435,1.99160065 15.7516696,2.0511319 C15.5526958,2.11066316 15.38568,2.24708972 15.2876339,2.43017857 L13.6819196,5.18732143 L10.2933482,5.18732143 L8.69620536,2.42160714 C8.49088425,2.04154908 8.01652293,1.89962426 7.63620536,2.10446429 C7.28657686,2.34436609 7.17649418,2.81067138 7.38191964,3.18160714 L8.54191964,5.18160714" id="路径"></path>
            </g>
        </g>
    </g>
</svg>