<?xml version="1.0" encoding="UTF-8"?>
<svg width="24px" height="24px" viewBox="0 0 24 24" version="1.1" xmlns="http://www.w3.org/2000/svg" xmlns:xlink="http://www.w3.org/1999/xlink">
    <title>ic_联系我们_pr</title>
    <g id="控件" stroke="none" stroke-width="1" fill="none" fill-rule="evenodd">
        <g id="ic_联系我们_pr" fill="#388EFF" fill-rule="nonzero">
            <g id="形状结合-2" transform="translate(2.000000, 3.000000)">
                <path d="M18.794989,-3.73969861e-15 C19.4651107,-3.73969861e-15 20.0083517,0.543241011 20.0083517,1.21336276 L20.0083517,14.0616609 C20.0083517,14.7317826 19.4651107,15.2750236 18.794989,15.2750236 L13.3324499,15.2750601 C11.6137266,15.2743819 10.4545541,15.2728175 9.85493225,15.2701702 C9.68508839,15.2593875 9.52082027,15.3328997 9.41569494,15.466735 C8.73378507,16.2505673 7.76188151,17.3595808 6.49877089,18.7937756 C6.2247691,19.1051702 5.81068658,19.2550249 5.40086002,19.1911047 C4.99103346,19.1271846 4.64225383,18.8583472 4.4760952,18.4783013 C4.03825855,17.4791839 3.60387209,16.4785582 3.17294361,15.4764419 C3.10256856,15.3114245 3.01763318,15.2701702 2.84776238,15.2701702 C2.43885912,15.2750236 1.89405926,15.276237 1.21336276,15.276237 C0.543241011,15.276237 3.10394985e-14,14.732996 3.10394985e-14,14.0628743 L3.10394985e-14,1.21336276 C3.10394985e-14,0.543241011 0.543241011,-3.73969861e-15 1.21336276,-3.73969861e-15 L18.794989,-3.73969861e-15 Z M12.2631579,8.84210526 L4.31578947,8.84210526 C3.76350472,8.84210526 3.31578947,9.28982051 3.31578947,9.84210526 L3.31578947,9.84210526 L3.31578947,10.0526316 C3.31578947,10.6049163 3.76350472,11.0526316 4.31578947,11.0526316 L4.31578947,11.0526316 L12.2631579,11.0526316 C12.8154426,11.0526316 13.2631579,10.6049163 13.2631579,10.0526316 L13.2631579,10.0526316 L13.2631579,9.84210526 C13.2631579,9.28982051 12.8154426,8.84210526 12.2631579,8.84210526 L12.2631579,8.84210526 Z M15.5789474,4.42105263 L4.31578947,4.42105263 C3.76350472,4.42105263 3.31578947,4.86876788 3.31578947,5.42105263 L3.31578947,5.42105263 L3.31578947,5.63157895 C3.31578947,6.1838637 3.76350472,6.63157895 4.31578947,6.63157895 L4.31578947,6.63157895 L15.5789474,6.63157895 C16.1312321,6.63157895 16.5789474,6.1838637 16.5789474,5.63157895 L16.5789474,5.63157895 L16.5789474,5.42105263 C16.5789474,4.86876788 16.1312321,4.42105263 15.5789474,4.42105263 L15.5789474,4.42105263 Z" id="形状结合"></path>
            </g>
        </g>
    </g>
</svg>