<?xml version="1.0" encoding="UTF-8"?>
<svg width="102px" height="26px" viewBox="0 0 102 26" version="1.1" xmlns="http://www.w3.org/2000/svg" xmlns:xlink="http://www.w3.org/1999/xlink">
    <title>logo</title>
    <g id="页面-1" stroke="none" stroke-width="1" fill="none" fill-rule="evenodd">
        <g id="导航新样式" transform="translate(-144.000000, -82.000000)" fill="#388EFF">
            <g id="形状结合-2" transform="translate(144.000000, 82.000000)">
                <path d="M76.2554761,0 L81.0513139,0.01243253 L94.9531002,15.5746802 L94.9531002,1.61494038 C95.0046746,1.16325624 95.0939622,0.815952783 95.220963,0.573030013 C95.3479637,0.330107244 95.6643966,0.143241416 96.1702615,0.01243253 L96.1702615,0.01243253 L100.322207,0.01243253 C100.926081,0.0301741354 101.356682,0.167875388 101.614009,0.425536289 C101.871336,0.683197189 102,1.07966522 102,1.61494038 L102,1.61494038 L102,24.6870255 C101.980537,25.086596 101.876019,25.4050805 101.686444,25.642479 C101.496869,25.8798775 101.185585,25.9990512 100.752593,26 L100.752593,26 L95.4114641,25.9990868 L81.7348068,10.5854183 L81.7348068,24.6870255 C81.7227469,25.0974833 81.6084229,25.4159678 81.3918348,25.642479 C81.1752466,25.8689903 80.8713766,25.9878595 80.4802247,25.9990868 L80.4802247,25.9990868 L75.7607495,26 C75.3880085,25.9465845 75.1122884,25.8274108 74.9335891,25.642479 C74.7548898,25.4575472 74.660068,25.1932556 74.6491238,24.8496042 L74.6491238,24.8496042 L74.6491238,1.61494038 C74.7326538,1.0233579 74.8745602,0.626889871 75.074843,0.425536289 C75.2751258,0.224182706 75.6686702,0.0823372764 76.2554761,0 L76.2554761,0 Z M7.10376302,0.01243253 L15.3174814,16.1115749 L23.4189176,0.01243253 L29.3544571,0.01243253 C29.9458706,0.0781236841 30.3176739,0.264295281 30.469867,0.570947321 C30.6220601,0.87759936 30.552532,1.30700942 30.2612825,1.8591775 L18.1398494,25.9990868 L12.4161555,25.9990868 L0.145438695,2.0565813 C-0.0484795649,1.29180427 -0.0484795649,0.761062437 0.145438695,0.464355808 C0.339356954,0.16764918 0.784687722,0.0170080872 1.481431,0.01243253 L7.10376302,0.01243253 Z M39.5719968,-1.77635684e-15 L55.6580397,0.00852321655 C57.6366805,0.522373888 59.2594945,1.41126892 60.5264819,2.6752083 C61.7934693,3.93914769 62.6300313,5.5037122 63.036168,7.36890183 L63.036168,18.4907522 C62.5547952,20.7830531 61.7182331,22.5117994 60.5264819,23.6769911 C59.3347307,24.8421828 57.6114659,25.6162147 55.3566876,25.9990868 L38.863183,25.9990868 C36.7912537,25.7419546 35.1161987,24.9679227 33.838018,23.6769911 C32.5598374,22.3860596 31.8161258,20.7171956 31.6068832,18.6703994 L31.6068832,7.87266141 C31.951072,5.64803524 32.6947836,3.91555087 33.838018,2.6752083 C34.9812524,1.43486573 36.8925787,0.543129627 39.5719968,-1.77635684e-15 Z M66.9648286,0.01243253 L71.2208775,0.01243253 C71.6559732,0.0756090101 71.9732868,0.198199408 72.1728185,0.380203723 C72.3723501,0.562208038 72.4915543,0.878210961 72.5304311,1.32821249 L72.5304311,24.6833068 C72.5304311,25.0954527 72.4112269,25.4208767 72.1728185,25.6595787 C71.9344101,25.8982808 71.6135282,26.0114501 71.2101727,25.9990868 L66.9648286,25.9990868 C66.5384219,25.9990868 66.2209208,25.8859174 66.0123255,25.6595787 C65.8037301,25.43324 65.6847133,25.107816 65.655275,24.6833068 L65.655275,1.38188537 C65.607096,1.0134017 65.7261128,0.679507813 66.0123255,0.380203723 C66.2985381,0.0808996327 66.6160392,-0.0416907649 66.9648286,0.01243253 Z M54.8298026,7.25748636 L39.9327361,7.25748636 C39.4486506,7.25748636 39.0921329,7.35284154 38.863183,7.54355189 C38.6628519,7.71042345 38.5405212,7.97995747 38.4961909,8.35215397 L38.4819678,8.51795221 L38.4819678,17.6747572 C38.5121277,18.1313298 38.6391994,18.4815537 38.863183,18.725429 C39.0622795,18.9422071 39.3929279,19.0626393 39.8551282,19.0867258 L40.0346198,19.091242 L54.971825,19.0916201 C55.2957064,19.0771342 55.5670594,18.9550705 55.785884,18.725429 C56.0047086,18.4957875 56.1277975,18.1989421 56.1551506,17.8348928 L56.1610119,17.6747572 L56.1610119,8.51795221 C56.1610119,8.05223022 56.0359693,7.72743011 55.785884,7.54355189 C55.5357988,7.35967367 55.217105,7.26431849 54.8298026,7.25748636 Z" id="形状结合"></path>
            </g>
        </g>
    </g>
</svg>